<?xml version="1.0" encoding="utf-8"?>
<!-- Generator: Adobe Illustrator 26.5.0, SVG Export Plug-In . SVG Version: 6.00 Build 0)  -->
<svg version="1.1" id="Ebene_1" xmlns="http://www.w3.org/2000/svg" xmlns:xlink="http://www.w3.org/1999/xlink" x="0px" y="0px" viewBox="0 0 32 32" style="enable-background:new 0 0 32 32;" xml:space="preserve">
	<style>
	.mail-theme-background {
		fill: #0078e6;
	}
	.mail-theme-color {
		fill: #ffffff;
	}
	</style>
	<rect class="mail-theme-background" width="32" height="32"/>
	<g>
		<path class="mail-theme-color" d="M7,11.4l9,4.5l9-4.5c-0.1-1.2-1.1-2.1-2.2-2.1H9.2C8.1,9.2,7.1,10.2,7,11.4z"/>
		<path class="mail-theme-color" d="M25,13.9l-9,4.5l-9-4.5v6.6c0,1.2,1,2.2,2.2,2.2h13.5c1.2,0,2.2-1,2.2-2.2V13.9z"/>
	</g>
</svg>
